{
  "redirectUri": "http://backend/_oauth",
  "origins": "*",
  "exitTokenPage": "http://localhost:4200/#closeme",
  "clientId": "",
  "clientSecret": ""
  "PREFIX_RESOURCE": "storyreport-resource-",
  "PREFIX_OUTPUT": "storyreport-output-",
}
